Fondecyt Paper 2 - 1 Procesamiento Data Conclat
…
1.3.6 isco08_2d

# frq(data$ciuo08)

data %>%
  filter(as.numeric(ciuo08) < 1100) %>%
  select(ciuo08, a03)

# A tibble: 54 × 2
   ciuo08 a03                
   <chr>  <chr>              
 1 -999   estudiar           
 2 0110   FFAA               
 3 0111   FFAA               
 4 -999   trabajo            
 5 -999   estudiar           
 6 -999   estudiar y trabajar
 7 -999   no sabe            
 8 -999   no sabe            
 9 -999   no sabe            
10 0110   FFAA               
# ℹ 44 more rows
…
